…
cases %>%
  group_by(areaName) %>%
  mutate(total = sum(newCasesBySpecimenDate, na.rm = TRUE), 
         daily_pub_change = -cumCasesByPublishDate + lag(cumCasesByPublishDate), 
         daily_diff = daily_pub_change - lag(newCasesByPublishDate)) %>%
  filter(date >= "2020-09-01") %>%
  summarise(check = max(cumCasesByPublishDate, na.rm = TRUE),
            tot = sum(newCasesByPublishDate, na.rm = TRUE), 
            total) %>%
  mutate_if(is.numeric, sum) %>%
  mutate(diff = check - tot)
```

    ## # A tibble: 500 x 5
    ## # Groups:   areaName [4]
    ##    areaName     check       tot     total     diff
    ##    <chr>        <dbl>     <dbl>     <dbl>    <dbl>
    ##  1 England  285850375 249743500 285850375 36106875
    ##  2 England  285850375 249743500 285850375 36106875
    ##  3 England  285850375 249743500 285850375 36106875
    ##  4 England  285850375 249743500 285850375 36106875
    ##  5 England  285850375 249743500 285850375 36106875
    ##  6 England  285850375 249743500 285850375 36106875
    ##  7 England  285850375 249743500 285850375 36106875
    ##  8 England  285850375 249743500 285850375 36106875
    ##  9 England  285850375 249743500 285850375 36106875
    ## 10 England  285850375 249743500 285850375 36106875
    ## # … with 490 more rows

``` r
cases %>%
  filter(str_detect(areaCode, "^N"))
```

    ## # A tibble: 367 x 9
    ##    date       areaType areaCode areaName cumCasesByPubli… cumCasesBySpeci…
    ##    <date>     <chr>    <chr>    <chr>               <dbl>            <dbl>
    ##  1 2021-01-03 nation   N920000… Norther…            78072               NA
    ##  2 2021-01-02 nation   N920000… Norther…            76410               NA
    ##  3 2021-01-01 nation   N920000… Norther…            72834               NA
    ##  4 2020-12-31 nation   N920000… Norther…            72834               NA
    ##  5 2020-12-30 nation   N920000… Norther…            70905            72834
    ##  6 2020-12-29 nation   N920000… Norther…            68762            71255
    ##  7 2020-12-28 nation   N920000… Norther…            67196            68921
    ##  8 2020-12-27 nation   N920000… Norther…            65562            67483
    ##  9 2020-12-26 nation   N920000… Norther…            65562            66360
    ## 10 2020-12-25 nation   N920000… Norther…            64564            65614
    ## # … with 357 more rows, and 3 more variables: newCasesByPublishDate <dbl>,
    ## #   newCasesBySpecimenDate <dbl>, newCasesBySpecimenDateDirection <chr>
…
